{
  "summary": {
    "title": "TigerMail Threat Model",
    "owner": "Adam 'Etam' Mizerski",
    "description": "TigerMail is a distributed e-mail, with true asynchronous communication. It has also built-in encryption with forward-secrecy."
  },
  "detail": {
    "contributors": [],
    "diagrams": [
      {
        "title": "Main Data Flow",
        "thumbnail": "./public/content/images/thumbnail.jpg",
        "id": 0,
        "$$hashKey": "object:202",
        "diagramJson": {
          "cells": [
            {
              "type": "tm.Process",
              "size": {
                "width": 100,
                "height": 100
              },
              "position": {
                "x": 460,
                "y": 210
              },
              "angle": 0,
              "id": "3ddb314b-e8ae-4abc-b197-d3ec12a87f8a",
              "z": 1,
              "hasOpenThreats": false,
              "attrs": {
                ".element-shape": {
                  "class": "element-shape hasNoOpenThreats isInScope"
                },
                "text": {
                  "text": "TigerMail"
                },
                ".element-text": {
                  "class": "element-text hasNoOpenThreats isInScope"
                }
              }
            },
            {
              "type": "tm.Process",
              "size": {
                "width": 100,
                "height": 100
              },
              "position": {
                "x": 640,
                "y": 100
              },
              "angle": 0,
              "id": "cd6b11f7-c234-4dfe-939c-ef2b57b6115f",
              "z": 2,
              "hasOpenThreats": false,
              "attrs": {
                ".element-shape": {
                  "class": "element-shape hasNoOpenThreats isInScope"
                },
                "text": {
                  "text": "geth"
                },
                ".element-text": {
                  "class": "element-text hasNoOpenThreats isInScope"
                }
              }
            },
            {
              "type": "tm.Process",
              "size": {
                "width": 100,
                "height": 100
              },
              "position": {
                "x": 640,
                "y": 360
              },
              "angle": 0,
              "id": "01970aa4-355f-426c-8188-a2763ba25b5d",
              "z": 3,
              "hasOpenThreats": false,
              "attrs": {
                ".element-shape": {
                  "class": "element-shape hasNoOpenThreats isInScope"
                },
                "text": {
                  "text": "swarm"
                },
                ".element-text": {
                  "class": "element-text hasNoOpenThreats isInScope"
                }
              }
            },
            {
              "type": "tm.Actor",
              "size": {
                "width": 160,
                "height": 80
              },
              "position": {
                "x": 150,
                "y": 220
              },
              "angle": 0,
              "id": "49e44e59-74dc-4a81-9e7a-208f79bf5a20",
              "z": 4,
              "hasOpenThreats": false,
              "description": "Mail User Agent",
              "attrs": {
                ".element-shape": {
                  "class": "element-shape hasNoOpenThreats isInScope"
                },
                "text": {
                  "text": "MUA"
                },
                ".element-text": {
                  "class": "element-text hasNoOpenThreats isInScope"
                }
              }
            },
            {
              "type": "tm.Flow",
              "size": {
                "width": 10,
                "height": 10
              },
              "smooth": true,
              "source": {
                "id": "49e44e59-74dc-4a81-9e7a-208f79bf5a20"
              },
              "target": {
                "id": "3ddb314b-e8ae-4abc-b197-d3ec12a87f8a"
              },
              "vertices": [
                {
                  "x": 391,
                  "y": 219
                }
              ],
              "id": "48206508-9878-4021-a4eb-1dcaaab679b8",
              "labels": [
                {
                  "position": {
                    "distance": 0.5214132193390048,
                    "offset": 3.041525852817966
                  },
                  "attrs": {
                    "text": {
                      "text": "pop3",
                      "font-weight": "400",
                      "font-size": "small"
                    }
                  }
                }
              ],
              "z": 5,
              "hasOpenThreats": false,
              "protocol": "pop3 over localhost tcp",
              "threats": [
                {
                  "status": "Mitigated",
                  "severity": "Low",
                  "type": "Spoofing",
                  "title": "Localhost socket spoofing",
                  "description": "Something else might open the listening socket, before TigerMail does. MUA can't authenticate the server.",
                  "mitigation": "Use https://github.com/nixcloud/ip2unix/",
                  "$$hashKey": "object:1180"
                }
              ],
              "attrs": {
                ".marker-target": {
                  "class": "marker-target hasNoOpenThreats isInScope"
                },
                ".connection": {
                  "class": "connection hasNoOpenThreats isInScope"
                }
              }
            },
            {
              "type": "tm.Flow",
              "size": {
                "width": 10,
                "height": 10
              },
              "smooth": true,
              "source": {
                "id": "49e44e59-74dc-4a81-9e7a-208f79bf5a20"
              },
              "target": {
                "id": "3ddb314b-e8ae-4abc-b197-d3ec12a87f8a"
              },
              "vertices": [
                {
                  "x": 391,
                  "y": 304
                }
              ],
              "id": "086e668c-9dc0-45d5-ba00-1172c71a0923",
              "labels": [
                {
                  "position": 0.5,
                  "attrs": {
                    "text": {
                      "text": "smtp",
                      "font-weight": "400",
                      "font-size": "small"
                    }
                  }
                }
              ],
              "z": 6,
              "hasOpenThreats": false,
              "protocol": "smtp over localhost tcp",
              "threats": [
                {
                  "status": "Mitigated",
                  "severity": "Low",
                  "type": "Spoofing",
                  "title": "Localhost socket spoofing",
                  "description": "See pop3",
                  "$$hashKey": "object:1187"
                }
              ],
              "attrs": {
                ".marker-target": {
                  "class": "marker-target hasNoOpenThreats isInScope"
                },
                ".connection": {
                  "class": "connection hasNoOpenThreats isInScope"
                }
              }
            },
            {
              "type": "tm.Boundary",
              "size": {
                "width": 10,
                "height": 10
              },
              "smooth": true,
              "source": {
                "x": 416,
                "y": 169
              },
              "target": {
                "x": 579,
                "y": 354
              },
              "vertices": [
                {
                  "x": 428,
                  "y": 350
                }
              ],
              "id": "f2df81e2-f291-4057-a1e5-936872e35609",
              "z": 7,
              "labels": [
                {
                  "position": 0.5,
                  "attrs": {
                    "text": {
                      "text": "localhost tcp\nconnection",
                      "font-weight": "400",
                      "font-size": "small"
                    }
                  }
                }
              ],
              "attrs": {}
            },
            {
              "type": "tm.Flow",
              "size": {
                "width": 10,
                "height": 10
              },
              "smooth": true,
              "source": {
                "id": "3ddb314b-e8ae-4abc-b197-d3ec12a87f8a"
              },
              "target": {
                "id": "cd6b11f7-c234-4dfe-939c-ef2b57b6115f"
              },
              "vertices": [
                {
                  "x": 601,
                  "y": 195
                }
              ],
              "id": "f7bdd70a-ea14-43f3-8727-18a9f63db142",
              "labels": [
                {
                  "position": 0.5,
                  "attrs": {
                    "text": {
                      "text": "geth rpc",
                      "font-weight": "400",
                      "font-size": "small"
                    }
                  }
                }
              ],
              "z": 8,
              "hasOpenThreats": false,
              "description": "",
              "protocol": "json-rpc over unix domain socket",
              "isEncrypted": true,
              "attrs": {
                ".marker-target": {
                  "class": "marker-target hasNoOpenThreats isInScope"
                },
                ".connection": {
                  "class": "connection hasNoOpenThreats isInScope"
                }
              }
            },
            {
              "type": "tm.Flow",
              "size": {
                "width": 10,
                "height": 10
              },
              "smooth": true,
              "source": {
                "id": "3ddb314b-e8ae-4abc-b197-d3ec12a87f8a"
              },
              "target": {
                "id": "01970aa4-355f-426c-8188-a2763ba25b5d"
              },
              "vertices": [
                {
                  "x": 619,
                  "y": 297
                }
              ],
              "id": "8a7760b0-463d-47cb-80fc-4a2cb22b9a65",
              "labels": [
                {
                  "position": 0.5,
                  "attrs": {
                    "text": {
                      "text": "swarm unix rpc",
                      "font-weight": "400",
                      "font-size": "small"
                    }
                  }
                }
              ],
              "z": 9,
              "hasOpenThreats": false,
              "isEncrypted": true,
              "attrs": {
                ".marker-target": {
                  "class": "marker-target hasNoOpenThreats isInScope"
                },
                ".connection": {
                  "class": "connection hasNoOpenThreats isInScope"
                }
              }
            },
            {
              "type": "tm.Flow",
              "size": {
                "width": 10,
                "height": 10
              },
              "smooth": true,
              "source": {
                "id": "3ddb314b-e8ae-4abc-b197-d3ec12a87f8a"
              },
              "target": {
                "id": "01970aa4-355f-426c-8188-a2763ba25b5d"
              },
              "vertices": [
                {
                  "x": 550,
                  "y": 390
                }
              ],
              "id": "1d67c412-135b-4876-94b2-2fcbf629d4d1",
              "labels": [
                {
                  "position": 0.5,
                  "attrs": {
                    "text": {
                      "text": "swarm tcp rpc",
                      "font-weight": "400",
                      "font-size": "small"
                    }
                  }
                }
              ],
              "z": 10,
              "hasOpenThreats": false,
              "protocol": "json-rpc over localhost tcp",
              "threats": [
                {
                  "status": "Mitigated",
                  "severity": "Low",
                  "type": "Spoofing",
                  "title": "Localhost socket spoofing",
                  "description": "Something else might open the listening socket, before swarm does.",
                  "mitigation": "Port number is queried through unix domain socket.",
                  "$$hashKey": "object:66"
                }
              ],
              "attrs": {
                ".marker-target": {
                  "class": "marker-target hasNoOpenThreats isInScope"
                },
                ".connection": {
                  "class": "connection hasNoOpenThreats isInScope"
                }
              }
            },
            {
              "type": "tm.Store",
              "size": {
                "width": 160,
                "height": 80
              },
              "position": {
                "x": 870,
                "y": 110
              },
              "angle": 0,
              "id": "0b3baeb3-b4bc-42e9-a12d-76fbac5e16dc",
              "z": 11,
              "hasOpenThreats": false,
              "isALog": true,
              "isEncrypted": true,
              "isSigned": true,
              "threats": [
                {
                  "status": "Mitigated",
                  "severity": "High",
                  "type": "Information disclosure",
                  "description": "",
                  "title": "Disclosing message content and recipient",
                  "mitigation": "Message content is stored is Swarm network. SwarmId is published in Ethereum contract, encrypted with keys from Signal protocol and secured with HMAC. No recipient identification is published. Recipient is able to decrypt it and confirm validity.",
                  "$$hashKey": "object:834"
                },
                {
                  "status": "Mitigated",
                  "severity": "High",
                  "type": "Repudiation",
                  "title": "Repudiation",
                  "mitigation": "Once a transaction is stored in blockchain, it cannot be removed.",
                  "description": "It's questionable if it's good for sending messages, but it's required for key invalidation.",
                  "$$hashKey": "object:59"
                },
                {
                  "status": "Mitigated",
                  "severity": "High",
                  "title": "Tampering",
                  "type": "Tampering",
                  "mitigation": "Ethereum transactions are signed and stored in blockchain.",
                  "$$hashKey": "object:2094"
                }
              ],
              "attrs": {
                ".element-shape": {
                  "class": "element-shape hasNoOpenThreats isInScope"
                },
                "text": {
                  "text": "TigerMail Contract on\nEthereum"
                },
                ".element-text": {
                  "class": "element-text hasNoOpenThreats isInScope"
                }
              }
            },
            {
              "type": "tm.Store",
              "size": {
                "width": 160,
                "height": 80
              },
              "position": {
                "x": 870,
                "y": 370
              },
              "angle": 0,
              "id": "6b37b706-d33e-4a5b-93a3-5100be238364",
              "z": 12,
              "hasOpenThreats": false,
              "isSigned": true,
              "isEncrypted": true,
              "threats": [
                {
                  "status": "Mitigated",
                  "severity": "High",
                  "title": "Disclosing message content",
                  "type": "Information disclosure",
                  "mitigation": "Message content is encrypted using Signal protocol.",
                  "$$hashKey": "object:1980"
                },
                {
                  "status": "Mitigated",
                  "severity": "High",
                  "title": "Tampering",
                  "type": "Tampering",
                  "mitigation": "Content stored in Swarm is identified by it's checksum.",
                  "$$hashKey": "object:2063"
                },
                {
                  "status": "Mitigated",
                  "severity": "High",
                  "title": "Retrieving old one-time Signal keys",
                  "type": "Information disclosure",
                  "description": "TigerMail publishes one-time keys as a Swarm Feed. An attacker should not be able to retrieve old keys, after newer ones are published.",
                  "mitigation": "This does not happen immediately, but old Feed data is removed from Swarm as it's being dropped from nodes storage.",
                  "$$hashKey": "object:419"
                }
              ],
              "attrs": {
                ".element-shape": {
                  "class": "element-shape hasNoOpenThreats isInScope"
                },
                "text": {
                  "text": "Swarm Network Storage"
                },
                ".element-text": {
                  "class": "element-text hasNoOpenThreats isInScope"
                }
              }
            },
            {
              "type": "tm.Flow",
              "size": {
                "width": 10,
                "height": 10
              },
              "smooth": true,
              "source": {
                "id": "cd6b11f7-c234-4dfe-939c-ef2b57b6115f"
              },
              "target": {
                "id": "0b3baeb3-b4bc-42e9-a12d-76fbac5e16dc"
              },
              "vertices": [],
              "id": "5e7b2266-0ebe-4447-885f-63e2f2cbe677",
              "labels": [
                {
                  "position": 0.5,
                  "attrs": {
                    "text": {
                      "text": "Ethereum network",
                      "font-weight": "400",
                      "font-size": "small"
                    }
                  }
                }
              ],
              "z": 13,
              "hasOpenThreats": false,
              "isPublicNetwork": true,
              "isEncrypted": true,
              "protocol": "devp2p",
              "threats": [
                {
                  "status": "Mitigated",
                  "severity": "Medium",
                  "title": "Spoofing",
                  "type": "Spoofing",
                  "mitigation": "Ethereum transactions are signed.",
                  "$$hashKey": "object:1199"
                },
                {
                  "status": "Mitigated",
                  "severity": "Medium",
                  "type": "Denial of service",
                  "title": "DoS",
                  "mitigation": "Ethereum is a p2p network.",
                  "$$hashKey": "object:963"
                }
              ],
              "attrs": {
                ".marker-target": {
                  "class": "marker-target hasNoOpenThreats isInScope"
                },
                ".connection": {
                  "class": "connection hasNoOpenThreats isInScope"
                }
              }
            },
            {
              "type": "tm.Flow",
              "size": {
                "width": 10,
                "height": 10
              },
              "smooth": true,
              "source": {
                "id": "01970aa4-355f-426c-8188-a2763ba25b5d"
              },
              "target": {
                "id": "6b37b706-d33e-4a5b-93a3-5100be238364"
              },
              "vertices": [],
              "id": "c3435f1c-39e2-49c6-93c7-d1f9de48c1cf",
              "labels": [
                {
                  "position": 0.5,
                  "attrs": {
                    "text": {
                      "text": "Swarm network",
                      "font-weight": "400",
                      "font-size": "small"
                    }
                  }
                }
              ],
              "z": 14,
              "hasOpenThreats": false,
              "isEncrypted": true,
              "isPublicNetwork": true,
              "protocol": "devp2p",
              "threats": [
                {
                  "ruleId": "edb05d76-a695-455f-947b-7d67b78bc31d",
                  "title": "DoS",
                  "type": "Denial of service",
                  "status": "Mitigated",
                  "severity": "Medium",
                  "description": "",
                  "mitigation": "Swarm is a p2p network.",
                  "$$hashKey": "object:1995"
                },
                {
                  "status": "Mitigated",
                  "severity": "High",
                  "type": "Information disclosure",
                  "title": "Disclosing message sender",
                  "description": "An attacker could try to corelate timing of a Ethereum event appearing and recipient downloading any Swarm content.",
                  "mitigation": "Messages are checked and downloaded in big time intervals.",
                  "$$hashKey": "object:2044"
                }
              ],
              "attrs": {
                ".marker-target": {
                  "class": "marker-target hasNoOpenThreats isInScope"
                },
                ".connection": {
                  "class": "connection hasNoOpenThreats isInScope"
                }
              }
            },
            {
              "type": "tm.Boundary",
              "size": {
                "width": 10,
                "height": 10
              },
              "smooth": true,
              "source": {
                "x": 787,
                "y": 74
              },
              "target": {
                "x": 787,
                "y": 489
              },
              "vertices": [],
              "id": "60c406ce-9167-409a-ad98-bf8c8f57022f",
              "z": 15,
              "labels": [
                {
                  "position": 0.5,
                  "attrs": {
                    "text": {
                      "text": "Internet",
                      "font-weight": "400",
                      "font-size": "small"
                    }
                  }
                }
              ],
              "attrs": {}
            },
            {
              "type": "tm.Store",
              "size": {
                "width": 160,
                "height": 80
              },
              "position": {
                "x": 150,
                "y": 50
              },
              "angle": 0,
              "id": "59a2ea08-7aad-4747-a1b8-1ec612d8ce6f",
              "z": 16,
              "hasOpenThreats": false,
              "outOfScope": false,
              "reasonOutOfScope": "",
              "threats": [
                {
                  "ruleId": "4adaa48a-0345-4533-a189-64c98c4420dd",
                  "title": "Tampering",
                  "type": "Tampering",
                  "status": "Mitigated",
                  "severity": "Low",
                  "description": "See Information disclosure.",
                  "mitigation": "",
                  "$$hashKey": "object:50"
                },
                {
                  "ruleId": "13000296-b17d-4b72-9cc4-f5cc33f80e4c",
                  "title": "Information disclosure",
                  "type": "Information disclosure",
                  "status": "Mitigated",
                  "severity": "Low",
                  "description": "Data stored on disk might be unprotected.",
                  "mitigation": "To protect against physical access, use full disk encryption.\nTo protect against other users, use correct filesystem access permissions.\nIf an attacker gains controll of your user, you're already screwed.",
                  "$$hashKey": "object:1009"
                }
              ],
              "attrs": {
                ".element-shape": {
                  "class": "element-shape hasNoOpenThreats isInScope"
                },
                "text": {
                  "text": "Received messages"
                },
                ".element-text": {
                  "class": "element-text hasNoOpenThreats isInScope"
                }
              }
            },
            {
              "type": "tm.Store",
              "size": {
                "width": 160,
                "height": 80
              },
              "position": {
                "x": 430,
                "y": 50
              },
              "angle": 0,
              "id": "601b08c9-103d-4a5e-9e43-c48e798e79cf",
              "z": 17,
              "hasOpenThreats": false,
              "description": "Contains cryptographic keys and decrypted received messages.",
              "threats": [
                {
                  "ruleId": "4adaa48a-0345-4533-a189-64c98c4420dd",
                  "title": "Tampering",
                  "type": "Tampering",
                  "status": "Mitigated",
                  "severity": "Low",
                  "description": "See Information disclosure in MUAs Received messages.",
                  "mitigation": "",
                  "$$hashKey": "object:764"
                },
                {
                  "ruleId": "13000296-b17d-4b72-9cc4-f5cc33f80e4c",
                  "title": "Information disclosure",
                  "type": "Information disclosure",
                  "status": "Mitigated",
                  "severity": "Low",
                  "description": "See Information disclosure in MUAs Received messages.",
                  "mitigation": "",
                  "$$hashKey": "object:1001"
                }
              ],
              "attrs": {
                ".element-shape": {
                  "class": "element-shape hasNoOpenThreats isInScope"
                },
                "text": {
                  "text": "sqlite and disk storage"
                },
                ".element-text": {
                  "class": "element-text hasNoOpenThreats isInScope"
                }
              }
            },
            {
              "type": "tm.Flow",
              "size": {
                "width": 10,
                "height": 10
              },
              "smooth": true,
              "source": {
                "id": "49e44e59-74dc-4a81-9e7a-208f79bf5a20"
              },
              "target": {
                "id": "59a2ea08-7aad-4747-a1b8-1ec612d8ce6f"
              },
              "vertices": [],
              "id": "b25716a4-2c34-4862-b8bb-2e0731fa6125",
              "labels": [
                {
                  "position": 0.5,
                  "attrs": {
                    "text": {
                      "text": "",
                      "font-weight": "400",
                      "font-size": "small"
                    }
                  }
                }
              ],
              "z": 18,
              "hasOpenThreats": false,
              "protocol": "filesystem",
              "attrs": {
                ".marker-target": {
                  "class": "marker-target hasNoOpenThreats isInScope"
                },
                ".connection": {
                  "class": "connection hasNoOpenThreats isInScope"
                }
              }
            },
            {
              "type": "tm.Flow",
              "size": {
                "width": 10,
                "height": 10
              },
              "smooth": true,
              "source": {
                "id": "3ddb314b-e8ae-4abc-b197-d3ec12a87f8a"
              },
              "target": {
                "id": "601b08c9-103d-4a5e-9e43-c48e798e79cf"
              },
              "vertices": [],
              "id": "9051c12a-e441-47fb-9b65-95bb218f23cb",
              "labels": [
                {
                  "position": 0.5,
                  "attrs": {
                    "text": {
                      "text": "",
                      "font-weight": "400",
                      "font-size": "small"
                    }
                  }
                }
              ],
              "z": 19,
              "hasOpenThreats": false,
              "protocol": "filesystem",
              "attrs": {
                ".marker-target": {
                  "class": "marker-target hasNoOpenThreats isInScope"
                },
                ".connection": {
                  "class": "connection hasNoOpenThreats isInScope"
                }
              }
            }
          ]
        },
        "size": {
          "height": 590,
          "width": 1166
        }
      }
    ]
  }
}